id_custumer,firstName_customer,lastName_customer,email_custumer,age,gender,lastYearRental
1G4GB5EG4AF113584,Griffin,Armiger,garmiger0@123-reg.co.uk,71,M,1
5J6TF3H31CL189198,Skylar,Penhaligon,spenhaligon1@devhub.com,78,M,2
WBAPT7C50AC417539,Mollee,Chaplain,mchaplain2@blogger.com,46,F,3
WBASN2C56DC729215,Kearney,Tansill,ktansill3@jalbum.net,52,M,4
3VW467AT4CM744264,Nanice,Cornock,ncornock4@naver.com,45,F,5
WBA3V7C55F5895119,Wolfy,Stenett,wstenett5@forbes.com,28,M,6
ML32A3HJ7EH168850,Nixie,Roisen,nroisen6@amazon.de,54,F,7
WBA3B5C53EF361994,Vassily,Tupper,vtupper7@ameblo.jp,36,M,8
JN1AV7ARXFM747394,Nicola,Fourmy,nfourmy8@sohu.com,56,M,9
1D4PU2GK3BW303198,Vyky,Rapa,vrapa9@ow.ly,75,F,10
WBA5B1C55ED633023,Beret,Wheelan,bwheelana@wix.com,35,F,11
YV1672MKXC2111459,Alfred,Elwyn,aelwynb@weebly.com,49,M,12
2G4WF551631114970,Elinor,Linster,elinsterc@ameblo.jp,30,F,13
5TDDK3DC4FS352795,Marcellina,Burgise,mburgised@google.cn,70,F,14
WAUKH98E46A706409,Thurston,Sever,tsevere@google.com,39,M,15
2G4GR5GX8F9944031,Amble,Reis,areisf@furl.net,67,M,16
1GYUCDEF1AR199872,Temple,Pelosi,tpelosig@bing.com,35,M,17
KMHTC6AD2CU435829,Culley,O'Cannovane,cocannovaneh@hibu.com,73,M,18
1C3CDFAA3DD818790,Somerset,August,saugusti@cafepress.com,34,M,19
5TDBK3EH6CS377517,Sibylla,Mostin,smostinj@wp.com,76,F,20
JN1CV6FE7DM396059,Galvin,Cratere,gcraterek@ocn.ne.jp,79,M,21
SCFEBBBKXBG524522,Balduin,Oger,bogerl@si.edu,33,M,22
WBAGL63462D619394,Ursola,McHan,umchanm@spotify.com,60,F,23
1FTMF1E81AK636529,Philomena,Nissle,pnisslen@soup.io,60,F,24
1GYS3AEF4DR376604,Nickey,Cauley,ncauleyo@usatoday.com,79,M,25
KNADH4A37A6168420,Farah,D'eathe,fdeathep@stanford.edu,29,F,26
3D7TT2CT4AG508450,Etheline,Whale,ewhaleq@google.ca,46,F,27
KM8NU4CC7CU499007,Giffard,Ferry,gferryr@engadget.com,51,M,28
5GALRCED6AJ814800,Lemmie,Storrah,lstorrahs@soup.io,26,M,29
3GYFNDE39ES573902,Meir,Bene,mbenet@ed.gov,75,M,30
1GD12ZCG8CF704794,Caleb,Elford,celfordu@guardian.co.uk,67,M,31
WBAYA8C53FG950811,Minnnie,Fivey,mfiveyv@weebly.com,26,F,32
WAUDH98E58A822987,Peggie,Porker,pporkerw@blogs.com,36,F,33
1G6DM5EV3A0752769,Dredi,Waterfall,dwaterfallx@apple.com,22,F,34
1G6DK8ED7B0663397,Neville,Baleine,nbaleiney@illinois.edu,76,M,35
1G6KS54Y51U933079,Orrin,Goman,ogomanz@artisteer.com,62,M,36
WAUHGAFC1FN082965,Parsifal,Sertin,psertin10@yale.edu,61,M,37
1GYFK23259R155885,Feodor,Melmoth,fmelmoth11@amazonaws.com,66,M,38
1N4AL2EP7DC520400,Jason,Alderwick,jalderwick12@studiopress.com,79,M,39
4T1BK3DB1BU248118,Blane,Callendar,bcallendar13@scientificamerican.com,32,M,40
1FTEW1CW3AK576792,Josias,Garbert,jgarbert14@netscape.com,61,M,41
VNKJTUD30FA764626,Avictor,Jiras,ajiras15@upenn.edu,34,M,42
1N6AF0LXXFN502504,Hugues,Denekamp,hdenekamp16@people.com.cn,70,M,43
WAUHFBFL7BN713690,Linet,Sivess,lsivess17@qq.com,68,F,44
4A31K3DT7AE094416,Kenneth,Sherrock,ksherrock18@people.com.cn,35,M,45
JH4CU4F63CC236311,Peggy,Mackilpatrick,pmackilpatrick19@domainmarket.com,48,F,46
WAUJF78K59N954239,Hale,Gallant,hgallant1a@admin.ch,73,M,47
WAUJC58E42A569095,Sylvia,Acedo,sacedo1b@odnoklassniki.ru,58,F,48
1G6AT5S34E0535939,Bryan,Dinwoodie,bdinwoodie1c@spiegel.de,66,M,49
1N6BF0KX2FN347632,Jacquenette,Burbidge,jburbidge1d@answers.com,34,F,50
1G6DN57P290169570,Ardra,Petts,apetts1e@house.gov,45,F,51
5N1BA0NE7FN586925,Jodie,Tonge,jtonge1f@sogou.com,44,M,52
3C6TD4KT3CG831189,Weber,Howlings,whowlings1g@example.com,63,M,53
WUARL48H57K538579,Georgianna,Warry,gwarry1h@oaic.gov.au,60,F,54
5UXZW0C54CL680340,Currie,Gerardot,cgerardot1i@jigsy.com,18,M,55
1GYS4GEF9CR266825,Bertie,Cribbins,bcribbins1j@earthlink.net,20,F,56
3N1CN7AP8FL778807,Evin,Aynsley,eaynsley1k@sogou.com,67,M,57
3C4PDDGG4FT785339,Nessa,Olsen,nolsen1l@prweb.com,46,F,58
1N6AF0LY0FN850448,Izzy,Andre,iandre1m@apache.org,21,M,59
WDCGG5GB4AF715676,Manolo,Bydaway,mbydaway1n@sohu.com,41,M,60
WBAWV13519P895380,Maggy,Sawyer,msawyer1o@bluehost.com,37,F,61
2G4GU5GV4C9517681,Tiler,Prettyman,tprettyman1p@hexun.com,50,M,62
3GTXKYEJ2AG762414,Dawna,Colombier,dcolombier1q@wsj.com,23,F,63
SALAB2V65EA548271,Carson,Saltwell,csaltwell1r@wiley.com,47,M,64
4T3BA3BB2EU491258,Elfreda,Batey,ebatey1s@feedburner.com,32,F,65
WDDGF5EB3AF913537,Bunnie,Pymer,bpymer1t@gizmodo.com,55,F,66
1G4PN5SK3C4625710,Vin,Petrelli,vpetrelli1u@utexas.edu,57,F,67
WAUWGAFB3BN827594,Anjela,Siaskowski,asiaskowski1v@homestead.com,59,F,68
1GYS3CEF5CR209999,Rachael,Cecere,rcecere1w@zdnet.com,35,F,69
1FMEU8FE7AU640298,Curtis,Beckhurst,cbeckhurst1x@ucla.edu,54,M,70
5TDDK4CC8AS539750,Lilla,Goodlip,lgoodlip1y@cdc.gov,58,F,71
3D73M4ELXAG068949,Teddy,Ganing,tganing1z@kickstarter.com,25,F,72
5UXFH0C57BL955968,Paulita,Perfitt,pperfitt20@i2i.jp,52,F,73
1FMJK1F55DE658745,Bekki,Lealle,blealle21@arizona.edu,30,F,74
WAUEH98E28A574637,Monro,Sheepy,msheepy22@goo.ne.jp,70,M,75
WAUVC58E42A115611,Neel,Lackner,nlackner23@slate.com,39,M,76
WAUEF98E86A561829,Ennis,O'Shields,eoshields24@ihg.com,49,M,77
NM0KS9BN1AT265703,Raine,Annies,rannies25@washingtonpost.com,21,F,78
1G4HJ5EM1BU931574,Hartwell,Po,hpo26@google.fr,53,M,79
1G6DZ67A190346602,Cathee,Whatling,cwhatling27@histats.com,62,F,80
1C4RDHDG9CC585908,Ritchie,Stopps,rstopps28@unicef.org,24,M,81
1FTEW1CM1EF734527,Candie,Hundell,chundell29@ucoz.com,33,F,82
JN8AE2KP9F9998010,Trent,Leavey,tleavey2a@jigsy.com,32,M,83
5UXZW0C56CL418545,Archaimbaud,Cowhig,acowhig2b@hatena.ne.jp,25,M,84
3D7JV1EP4AG742325,Kimball,Peasegood,kpeasegood2c@arizona.edu,29,M,85
5UXZV8C57BL859228,Lori,Beefon,lbeefon2d@technorati.com,60,F,86
WAUXU54B63N854460,Gertrud,Fidian,gfidian2e@biblegateway.com,18,F,87
WA1WKAFP0BA064786,Urbanus,Ashburner,uashburner2f@netlog.com,41,M,88
JN8AS5MT8DW387503,Ash,Liepins,aliepins2g@baidu.com,60,M,89
1FAHP2D8XFG886490,Albie,Tuckwell,atuckwell2h@yandex.ru,35,M,90
WBA5B3C59FD369480,Lyn,Halewood,lhalewood2i@unblog.fr,55,F,91
3GYFNFEY0BS665984,Shirline,Gandrich,sgandrich2j@booking.com,66,F,92
1D7RE2GK7BS380317,Allard,Daborn,adaborn2k@yelp.com,40,M,93
1G6DM5E3XD0195507,Jasmin,de Clerc,jdeclerc2l@shinystat.com,77,F,94
WAUBGAFC7CN607240,Marge,Pearsall,mpearsall2m@addthis.com,34,F,95
JA32U1FU2DU882945,Marillin,Peplay,mpeplay2n@nationalgeographic.com,69,F,96
WBAYB6C58DC810789,Colly,Ackrill,cackrill2o@answers.com,31,F,97
WP0CB2A8XCS552721,Tresa,Abbet,tabbet2p@naver.com,25,F,98
1N6AA0ED7FN131867,Myrtle,McCulloch,mmcculloch2q@sitemeter.com,30,F,99
SALAB2D46CA928460,Midge,Sides,msides2r@people.com.cn,68,F,100
SCBCR7ZA4AC468484,Chip,MacAllaster,cmacallaster2s@ocn.ne.jp,58,M,101
2G4WN58C681296757,Conrade,Node,cnode2t@flickr.com,62,M,102
1C3CCBBB8CN628723,Una,Ditchburn,uditchburn2u@ovh.net,78,F,103
WBA4A5C52FG296672,Jefferson,Sackler,jsackler2v@washingtonpost.com,80,M,104
YV4852CT2B1231224,Sheff,Quade,squade2w@booking.com,26,M,105
5UXFE8C50AL602865,Charissa,Beeckx,cbeeckx2x@jiathis.com,49,F,106
WAUDG78E16A889946,Filip,Peploe,fpeploe2y@buzzfeed.com,74,M,107
2C3CCACG1CH075331,Porty,Daldry,pdaldry2z@yolasite.com,68,M,108
WAUHFAFL1DN472156,Ade,Giorgioni,agiorgioni30@sakura.ne.jp,45,M,109
WBAUN1C59BV566676,Jennette,Broose,jbroose31@meetup.com,21,F,110
2G4GV5GV4C9552928,Vitoria,Barbrook,vbarbrook32@auda.org.au,48,F,111
JTJBM7FX9A5541141,Marena,Kloska,mkloska33@wunderground.com,22,F,112
WAUJFAFH8AN273078,Bianca,Tabord,btabord34@boston.com,32,F,113
3N1AB7AP5FY500191,Orelle,Gourlie,ogourlie35@samsung.com,68,F,114
WBAEN33472E857281,Euphemia,Gatling,egatling36@usnews.com,78,F,115
3GYFNFE39ES346043,Cleopatra,Rickersy,crickersy37@storify.com,80,F,116
2G4GP5EX7E9184097,Alli,Phillis,aphillis38@paypal.com,39,F,117
WBAUN1C5XBV613262,Cayla,Mingay,cmingay39@ucsd.edu,74,F,118
1N6AA0CJ2DN679295,Sterling,Tollfree,stollfree3a@aboutads.info,52,M,119
2C3CDXBG2EH920692,Anitra,Nutter,anutter3b@sina.com.cn,66,F,120
WAUWFAFL7AA854072,Lief,Wharmby,lwharmby3c@instagram.com,51,M,121
KMHTC6AD9CU823351,Brewer,Kennedy,bkennedy3d@blinklist.com,41,M,122
SCFFDAAM6EG444022,Bernardina,Mablestone,bmablestone3e@about.com,49,F,123
WAUSVAFA8AN326338,Kissie,Laddle,kladdle3f@technorati.com,58,F,124
5FRYD3H46GB134487,Gage,McNirlan,gmcnirlan3g@pen.io,73,M,125
YV4902DZ3E2200634,Reamonn,Dimnage,rdimnage3h@multiply.com,48,M,126
1GYS4NKJ6FR267836,Mariel,Stacy,mstacy3i@latimes.com,78,F,127
WAUFGAFBXAN278037,Olenolin,McQuaide,omcquaide3j@icio.us,58,M,128
WAUSF78K89A174442,Jerrie,Batha,jbatha3k@mlb.com,23,M,129
WAUGL68E85A514413,Auberta,Rundall,arundall3l@howstuffworks.com,41,F,130
5NPDH4AE8DH251496,Dane,Lightning,dlightning3m@posterous.com,28,M,131
WBA5A7C51FG547066,Noell,Yanson,nyanson3n@topsy.com,41,F,132
JTEBU4BF6BK014171,Karlotte,Fideler,kfideler3o@mtv.com,25,F,133
WAUDG74FX9N453320,Abner,Foro,aforo3p@skyrock.com,31,M,134
JTDKN3DP4D3038130,Faustina,Stote,fstote3q@hao123.com,51,F,135
WAUKF78E06A741782,Adrea,Samart,asamart3r@canalblog.com,25,F,136
5N1AA0NE2EN046070,Eustace,Jervois,ejervois3s@gnu.org,36,M,137
WBA4A5C5XFG444132,Giralda,Klimshuk,gklimshuk3t@howstuffworks.com,58,F,138
1FTWW3B50AE165082,Fields,Persian,fpersian3u@surveymonkey.com,45,M,139
SCFKDCEP8EG384615,Leda,Wendover,lwendover3v@aboutads.info,50,F,140
3VWML7AJ9EM760793,Goldie,Bowater,gbowater3w@ihg.com,31,F,141
3D7TT2CT1AG498850,Garrot,Higounet,ghigounet3x@wunderground.com,61,M,142
5N1AN0NU5DN086296,Margaretta,Bulger,mbulger3y@purevolume.com,35,F,143
WAUJC68E94A943368,Glyn,Fagence,gfagence3z@businessweek.com,34,M,144
1FTWX3B58AE928172,Laurena,Constantinou,lconstantinou40@tinypic.com,41,F,145
WAUBNBFB6AN497460,Angelica,Wolters,awolters41@amazon.co.uk,40,F,146
1G4GJ5E35CF899785,Babita,Lidyard,blidyard42@tripod.com,61,F,147
5TDBW5G13FS753143,Netti,Dabrowski,ndabrowski43@noaa.gov,71,F,148
4T1BD1FK2FU757619,Shelba,Rimington,srimington44@usgs.gov,77,F,149
WBAVB73598V676801,Chip,Colmer,ccolmer45@wufoo.com,20,M,150
5XXGM4A79CG618880,Hendrika,Edney,hedney46@indiatimes.com,30,F,151
WVGBF7A96AD874677,Clair,Lesser,clesser47@etsy.com,64,M,152
WAUVT58EX2A057634,Karol,Lawless,klawless48@4shared.com,66,F,153
JN1AJ0HP6BM525050,Abrahan,Collings,acollings49@fda.gov,31,M,154
2FMDK4KC3AB905562,Andreana,Hartfleet,ahartfleet4a@dropbox.com,49,F,155
WBA3N3C5XFK976904,Jedediah,Jantel,jjantel4b@wikipedia.org,37,M,156
1FMJU1F5XAE370791,Eduino,Mouan,emouan4c@usnews.com,45,M,157
WBAKB4C59CC267171,Jamesy,Kerswill,jkerswill4d@weather.com,30,M,158
WBA3A5G55DN567819,Brenda,Fisk,bfisk4e@parallels.com,24,F,159
1G6DC5EY4B0303616,Beulah,Savaage,bsavaage4f@bandcamp.com,28,F,160
1G6AR5SX0E0486207,Trace,Jaques,tjaques4g@opensource.org,54,M,161
WAUMV94E28N279640,Erhard,Fulbrook,efulbrook4h@hugedomains.com,68,M,162
WAUJFAFH0BN439711,Lammond,Addie,laddie4i@meetup.com,58,M,163
WBAUP73528V445221,Corine,Durward,cdurward4j@diigo.com,60,F,164
5NPDH4AE7EH622438,Wolfy,Tregea,wtregea4k@clickbank.net,58,M,165
WBAKG7C58CE111002,Gretta,Deerr,gdeerr4l@admin.ch,36,F,166
WDDEJ7GB4DA695883,Nessie,McKomb,nmckomb4m@senate.gov,27,F,167
YV4902DZ6D2084909,Pebrook,Scheffel,pscheffel4n@independent.co.uk,30,M,168
4T1BF1FK2DU502010,Ruttger,Duddan,rduddan4o@privacy.gov.au,78,M,169
WAUKFAFL3DN315394,Peggie,Sherr,psherr4p@weibo.com,24,F,170
JN1BY1AR2FM916624,Jarrad,Haly,jhaly4q@examiner.com,38,M,171
5NPEB4AC2DH940096,Wilhelm,Southcombe,wsouthcombe4r@jigsy.com,35,M,172
SCFFDABE9CG680443,Guillema,Alti,galti4s@timesonline.co.uk,45,F,173
WP1AB2A28FL187419,Abbott,Clinning,aclinning4t@furl.net,68,M,174
KNAFU5A22C5806289,Karlee,Grelik,kgrelik4u@storify.com,79,F,175
1G6DG577680256106,Herbert,Fearnsides,hfearnsides4v@topsy.com,36,M,176
5TFCW5F18DX113958,Shelia,Lundy,slundy4w@nifty.com,77,F,177
1D7RV1CP9AS241638,Ber,Backes,bbackes4x@time.com,50,M,178
3C63D2JL8CG873914,Charline,Akers,cakers4y@senate.gov,18,F,179
WDCYC3HF5CX509883,Gaspard,Jailler,gjailler4z@yelp.com,45,M,180
1G6KA5EY0AU781326,Jerrie,Bounde,jbounde50@studiopress.com,59,F,181
WAUXU64B92N486991,Barb,Glowach,bglowach51@sphinn.com,38,F,182
3C4PDDGG8ET110947,Sherwynd,Gerard,sgerard52@msn.com,27,M,183
YV4852CZ5B1296766,Lonni,Springtorp,lspringtorp53@tuttocitta.it,28,F,184
1G6AA5RXXD0391780,Vivienne,Kennally,vkennally54@bigcartel.com,23,F,185
KMHTC6AD7DU702934,Crissie,Paolozzi,cpaolozzi55@java.com,73,F,186
WVGEF9BP9ED192551,Caro,Lehrer,clehrer56@cdbaby.com,41,F,187
WAUMFAFL5CN178336,Shepperd,Kuban,skuban57@behance.net,42,M,188
JHMZF1C61DS447425,Joycelin,Merrigans,jmerrigans58@jugem.jp,27,F,189
3D7TT2CT7AG701918,Bald,Babar,bbabar59@free.fr,53,M,190
1G6DN57S450782112,Kendall,Mellers,kmellers5a@webeden.co.uk,24,M,191
JN1AY1AP9BM257901,Mariam,Diloway,mdiloway5b@tmall.com,77,F,192
4T3BA3BB3FU268261,Algernon,Fattorini,afattorini5c@technorati.com,29,M,193
3C4PDCBB6FT628238,Shawn,Hedling,shedling5d@51.la,58,M,194
JH4NA21653T517233,Goober,Wimbridge,gwimbridge5e@printfriendly.com,52,M,195
3GTU1YEJ6BG085505,Queenie,Denk,qdenk5f@reverbnation.com,18,F,196
1GYFC53249R564653,Josee,Kyncl,jkyncl5g@bluehost.com,60,F,197
2V4RW3DG8BR098532,Danila,Buncom,dbuncom5h@quantcast.com,42,F,198
1GD12YEG0FF651486,Silvanus,Whiles,swhiles5i@elegantthemes.com,24,M,199
3C4PDDAGXFT726675,Jinny,Capstaff,jcapstaff5j@yellowpages.com,20,F,200
JTHBK1GGXF2506880,Olly,Filipponi,ofilipponi5k@newyorker.com,78,M,201
4USCK73432L621436,Marna,Spridgen,mspridgen5l@so-net.ne.jp,58,F,202
1G6AJ5SX7E0030762,Adolpho,Hakewell,ahakewell5m@barnesandnoble.com,59,M,203
2G4GX5GV7B9221883,Aurora,Stanett,astanett5n@netvibes.com,80,F,204
1FTSX2A55AE312830,Reg,Berzen,rberzen5o@4shared.com,72,M,205
1G4GC5G30EF632984,Gav,Chucks,gchucks5p@kickstarter.com,33,M,206
3VW467AT9DM768657,Desiri,Bucklan,dbucklan5q@archive.org,22,F,207
SALVN2BG2EH371286,Shina,Barkus,sbarkus5r@businessweek.com,26,F,208
JM1NC2PF8E0279725,Kassi,McLaverty,kmclaverty5s@blogtalkradio.com,42,F,209
1G6AP5SX9F0894227,Rozina,Blackburn,rblackburn5t@arstechnica.com,38,F,210
WBAYA8C56DD360536,Walliw,Calan,wcalan5u@boston.com,36,F,211
KMHHT6KD8DU417809,Boonie,Lambkin,blambkin5v@bloglovin.com,58,M,212
2C3CDZBG8FH665480,Clari,MacDougal,cmacdougal5w@indiatimes.com,24,F,213
WAUDFAFL6BA820553,Jacob,Rollin,jrollin5x@unc.edu,61,M,214
JTDKN3DU0F0407351,Shirl,Abrahamsson,sabrahamsson5y@foxnews.com,64,F,215
2C3CA4CD7AH979257,Albie,Marcroft,amarcroft5z@blog.com,30,M,216
WAUCFAFR4BA995982,Thedric,McKeller,tmckeller60@discuz.net,75,M,217
WAULT68E74A064394,Ken,Shilling,kshilling61@vistaprint.com,27,M,218
1VWAP7A32EC406544,Melony,Maunder,mmaunder62@furl.net,31,F,219
3D7TT2HT7AG786462,Tracy,Kief,tkief63@about.me,23,F,220
WAU2GAFC1EN805198,Jacquenetta,Binestead,jbinestead64@telegraph.co.uk,37,F,221
2T2BK1BA2EC335879,Dickie,Simakov,dsimakov65@rediff.com,73,M,222
WAUDT48H96K258389,Larry,Gandey,lgandey66@nih.gov,80,M,223
1G4HP54K734175507,Marv,Whitehair,mwhitehair67@yellowbook.com,18,M,224
2LMHJ5AR6AB808136,Cody,Ellerker,cellerker68@baidu.com,80,F,225
KMHHT6KD1BU442709,Rube,Coats,rcoats69@about.com,44,M,226
JH4DB75681S925826,Kendra,Brickdale,kbrickdale6a@chronoengine.com,30,F,227
1GD220CG2CZ741290,Melina,Habbergham,mhabbergham6b@aol.com,25,F,228
WP0AB2A98AS009400,Jamey,Quernel,jquernel6c@rambler.ru,74,M,229
WAUWGAFC1DN090116,Rebbecca,Saurin,rsaurin6d@reference.com,34,F,230
5GADT13S462783527,Jyoti,Kipling,jkipling6e@etsy.com,63,F,231
YV4902BZ9C1370275,Marta,Lindenblatt,mlindenblatt6f@berkeley.edu,24,F,232
JM1NC2NF4E0987800,Heda,Attfield,hattfield6g@si.edu,33,F,233
1GYS4GEF8CR774459,Northrup,Warcup,nwarcup6h@yelp.com,73,M,234
JN1BY1PP5FM211595,Michaela,Mebs,mmebs6i@pagesperso-orange.fr,22,F,235
1G4GC5GR1DF965164,Consolata,Dannett,cdannett6j@time.com,77,F,236
WBAUC9C55CV925530,Wilek,Kiljan,wkiljan6k@amazon.co.uk,51,M,237
1G6AB5RX6F0563805,Scott,Mynard,smynard6l@xinhuanet.com,45,M,238
WAUKF78E26A990066,Joann,Chittey,jchittey6m@istockphoto.com,80,F,239
5N1AN0NU0CN975599,Lorine,Eles,leles6n@usatoday.com,50,F,240
3D7JV1EP9BG131403,Marie-ann,Jenner,mjenner6o@freewebs.com,19,F,241
WAUUL58E55A317373,Lezlie,Fleeming,lfleeming6p@ed.gov,71,F,242
WVGAV7AX6BW277533,Waring,enzley,wenzley6q@usatoday.com,35,M,243
1G6DK5E32C0178642,Filippo,Talton,ftalton6r@eepurl.com,76,M,244
5TDDK3DC7FS513172,Tito,Whittam,twhittam6s@columbia.edu,77,M,245
WBA3A5G51CN074007,Bengt,Pattinson,bpattinson6t@hostgator.com,24,M,246
1GYFK66857R466432,Mildrid,Gallimore,mgallimore6u@fastcompany.com,27,F,247
WBSDX9C58CE990419,Shay,Erasmus,serasmus6v@weather.com,29,F,248
4T1BD1FK4EU683327,Dena,Duckerin,dduckerin6w@uol.com.br,33,F,249
3D7TT2CT4BG983159,Tisha,Corless,tcorless6x@bizjournals.com,29,F,250
WAUUL58E75A853077,Greg,Sutherns,gsutherns6y@amazon.co.uk,67,M,251
WVGAV7AX7FW879153,Ellerey,Joskowitz,ejoskowitz6z@google.nl,63,M,252
2B3CA5CT1AH797807,Jaimie,Haggata,jhaggata70@yale.edu,52,M,253
WA1BV74L38D727090,Kellie,Weall,kweall71@blinklist.com,51,F,254
WAUMFBFLXDN058054,Hendrik,Goade,hgoade72@163.com,25,M,255
2D4RN4DG5BR723104,Harlie,Ivanisov,hivanisov73@studiopress.com,58,F,256
2C3CCAAG9CH343285,Ketty,Spensly,kspensly74@indiegogo.com,66,F,257
YV1902FH7D1695894,Ailyn,Drover,adrover75@ustream.tv,18,F,258
WAUVFAFH2BN540427,Georgi,Margiotta,gmargiotta76@networksolutions.com,20,M,259
KMHGH4JH6EU360629,Cletis,Potebury,cpotebury77@answers.com,76,M,260
WBAYE8C51ED908996,Llywellyn,Huggins,lhuggins78@nps.gov,54,M,261
1J4PN2GK4AW547686,Fawnia,Folan,ffolan79@skype.com,37,F,262
WBAEV53453K994833,Noel,Jasik,njasik7a@issuu.com,49,M,263
WAUJFAFH5AN338744,Nikola,Latus,nlatus7b@wufoo.com,40,M,264
1FMJK1G51DE455897,Karisa,Bromwich,kbromwich7c@zdnet.com,22,F,265
1GD422CG6EF376959,Arnuad,Pethrick,apethrick7d@mozilla.org,77,M,266
1FMCU4K34BK043790,Harley,Rose,hrose7e@princeton.edu,78,M,267
WBABD53494P287891,Vivie,Flaherty,vflaherty7f@state.gov,38,F,268
WP0AB2A95AS956250,Joella,Cauldwell,jcauldwell7g@wikimedia.org,37,F,269
WBAVB73557F373622,Hi,Arnaldy,harnaldy7h@chron.com,29,M,270
1N6BF0KM5FN051767,Kathie,Cawsey,kcawsey7i@domainmarket.com,65,F,271
WBAVB73538F463773,Christan,Stoner,cstoner7j@networkadvertising.org,46,F,272
JM1NC2JFXC0261166,Sheilakathryn,Vogelein,svogelein7k@csmonitor.com,41,F,273
W04GX5GVXB1846815,Petey,Berzon,pberzon7l@fda.gov,55,M,274
KMHHT6KD8DU329830,Jehanna,Bate,jbate7m@walmart.com,79,F,275
WAUJT64B83N234952,Romy,Greenmon,rgreenmon7n@desdev.cn,32,F,276
WAULD64B72N422835,Dara,Ducket,dducket7o@geocities.com,79,F,277
2HNYD18225H463886,Gradeigh,Tethacot,gtethacot7p@cdbaby.com,72,M,278
1FAHP2DW5AG966822,Anne,Swindell,aswindell7q@comcast.net,80,F,279
5N1AN0NW2FN476941,Ewart,MacAleese,emacaleese7r@google.de,66,M,280
2G4GS5EC1B9502383,Shawn,Dauney,sdauney7s@netscape.com,42,M,281
WBANA735X4B728323,Amie,Poolton,apoolton7t@deviantart.com,28,F,282
WBANV935X9C364471,Grant,Dadge,gdadge7u@tamu.edu,58,M,283
WAULC68E43A514940,Julietta,Quarrie,jquarrie7v@so-net.ne.jp,74,F,284
SCFAB01A96G779888,Shoshana,Fraczak,sfraczak7w@moonfruit.com,21,F,285
WAUDFAFL3FN546839,Friedrich,Dewsnap,fdewsnap7x@oaic.gov.au,50,M,286
1G6DC8EG6A0431122,Sephira,Murrison,smurrison7y@sourceforge.net,22,F,287
JTDZN3EU5FJ388951,Liesa,Empleton,lempleton7z@topsy.com,45,F,288
5N1AA0ND2FN288740,Mariellen,Ivashechkin,mivashechkin80@mapy.cz,58,F,289
1HGCP2E45AA517419,Bronnie,Creser,bcreser81@mayoclinic.com,30,M,290
1G6DF8E59C0238178,Colene,Mailey,cmailey82@altervista.org,22,F,291
1GYS4CEF9BR189090,Karrie,Klammt,kklammt83@jiathis.com,73,F,292
1GYUKGEF6AR298577,Chauncey,Marmion,cmarmion84@epa.gov,52,M,293
WBA3B3C59FF294694,Hermine,Licciardello,hlicciardello85@so-net.ne.jp,55,F,294
1G6KY54931U901898,Klara,Fendley,kfendley86@japanpost.jp,76,F,295
2FMDK4GC7AB842684,Flora,Cullrford,fcullrford87@google.com.hk,36,F,296
SCBLC47J78C908131,Gradeigh,Heathcote,gheathcote88@wikia.com,21,M,297
3N1CN7AP0EL911414,Somerset,Keeping,skeeping89@prweb.com,38,M,298
WP0AB2A86CU662306,Ebonee,Spedroni,espedroni8a@purevolume.com,60,F,299
1G4GH5G37CF921844,Sebastien,Innett,sinnett8b@mozilla.com,22,M,300
WBA3A5C53EP272844,Donielle,Catchpole,dcatchpole8c@hibu.com,60,F,301
SCFFDCCD2AG263910,Susie,McErlaine,smcerlaine8d@netvibes.com,31,F,302
1GD311CGXFF041763,Maryjane,Imison,mimison8e@domainmarket.com,51,F,303
4USBT33524L607623,Sela,Shirlaw,sshirlaw8f@wikia.com,78,F,304
1N4CL2AP5BC151712,Brnaba,Klaassens,bklaassens8g@discovery.com,76,M,305
5UXFG2C53E0910918,Lennard,Hoggin,lhoggin8h@squarespace.com,60,M,306
WBAUP735X8V127055,Cyrillus,Spick,cspick8i@blog.com,19,M,307
1G6EC12942B191947,Daile,Gauford,dgauford8j@example.com,78,F,308
1GYS3AEF2BR166225,Darb,Woolmington,dwoolmington8k@chron.com,55,M,309
WAUVT58E75A866545,Blair,Rabley,brabley8l@jigsy.com,44,M,310
4A37L2EF0AE234302,North,Marushak,nmarushak8m@forbes.com,55,M,311
5NPDH4AE3FH690785,Woodman,Joynes,wjoynes8n@pbs.org,43,M,312
SAJWA2GT2EM220888,Carmita,Tuddenham,ctuddenham8o@latimes.com,27,F,313
19UUA8F57CA587135,Oren,Jillions,ojillions8p@google.com.br,37,M,314
WAUJFAFH4AN597189,Rustie,Trevear,rtrevear8q@icio.us,36,M,315
WAUKF98E46A289556,Gale,Lowy,glowy8r@jugem.jp,75,M,316
SCFAD01E59G481632,Bab,Turban,bturban8s@ibm.com,30,F,317
2C3CDXDT1DH802111,Eimile,Yardley,eyardley8t@ocn.ne.jp,40,F,318
1FTEW1CW1AK260758,Dore,Fassbindler,dfassbindler8u@tinyurl.com,40,F,319
WAUHFBFL8DN094536,Cally,Piggins,cpiggins8v@seesaa.net,77,F,320
WA1BY94L78D850877,Berry,Tiffin,btiffin8w@altervista.org,76,F,321
JHMZE2H30DS310001,Anette,Sheara,asheara8x@ftc.gov,63,F,322
1D4SD6GT0BC666005,Joyann,Epdell,jepdell8y@tinyurl.com,40,F,323
3VW8S7AT2FM310815,Horst,Mabbs,hmabbs8z@slashdot.org,31,M,324
WBA3T3C54FP959945,Rory,Flaxman,rflaxman90@flavors.me,53,F,325
5UXKR0C51E0872778,Gerladina,Waistell,gwaistell91@slate.com,28,F,326
WA1VFAFL5DA019441,Audrie,Corradini,acorradini92@feedburner.com,40,F,327
WAUGF78KX9A109453,Sherlock,Schumacher,sschumacher93@wufoo.com,32,M,328
WBAVC93588K022303,Gustave,Kelling,gkelling94@examiner.com,28,M,329
19UUA8F55EA348122,Lind,Wooland,lwooland95@discuz.net,43,F,330
3D7TT2HT1BG669459,Gusty,Gallgher,ggallgher96@webnode.com,32,F,331
5FNRL3H21AB792622,Adrien,Richardes,arichardes97@joomla.org,60,M,332
WAUDK78T99A509527,Tremain,Woloschin,twoloschin98@seesaa.net,40,M,333
1G6AM5SX7E0841372,Deerdre,Harbage,dharbage99@mlb.com,54,F,334
1FTSW2A54AE312577,Lenora,Lifsey,llifsey9a@va.gov,40,F,335
5UXFE43567L788879,Kurt,Hennemann,khennemann9b@blogtalkradio.com,70,M,336
JTHBF1D29F5015275,Rebbecca,Pargeter,rpargeter9c@cargocollective.com,66,F,337
1D7RV1CT8BS676777,Alvira,Colliver,acolliver9d@europa.eu,21,F,338
5FNYF3H26EB705838,Juana,Clingoe,jclingoe9e@upenn.edu,66,F,339
WAUUL98E56A714199,Dale,Slemmonds,dslemmonds9f@ibm.com,67,F,340
3G5DB03E63S838816,Pippy,Halvosen,phalvosen9g@netlog.com,66,F,341
3C3CFFAR4ET778456,Elvera,Claw,eclaw9h@berkeley.edu,25,F,342
5N1BA0NE6FN415731,Berkie,Baggelley,bbaggelley9i@edublogs.org,60,M,343
WAUMFAFL0BN182745,Haydon,Tyers,htyers9j@godaddy.com,44,M,344
1N6AD0CU2BC044071,Leontyne,Penelli,lpenelli9k@loc.gov,78,F,345
WAUHF98P28A463655,Hermine,Gueny,hgueny9l@nba.com,64,F,346
WDDHF5KB6EA621859,Paola,Amer,pamer9m@hostgator.com,58,F,347
5GADV23137D569268,Doria,Brafield,dbrafield9n@ihg.com,80,F,348
WAUGN74F19N299941,Heidi,Dalston,hdalston9o@whitehouse.gov,70,F,349
JTHKD5BH0B2113546,Hazel,Clery,hclery9p@diigo.com,20,F,350
2C3CCAKGXEH196055,Brock,Goodwin,bgoodwin9q@t-online.de,21,M,351
1G6DL5EV3A0429325,Daron,Sodor,dsodor9r@cpanel.net,52,M,352
1C4SDJCT4DC608164,Davy,Daymont,ddaymont9s@squidoo.com,80,M,353
JN8AS5MT3AW348006,Gerrilee,Phripp,gphripp9t@zimbio.com,51,F,354
WBAAV33431F657604,Elmore,McGivena,emcgivena9u@imageshack.us,34,M,355
1N6AA0CCXDN427909,Reinhold,Chaman,rchaman9v@youtube.com,79,M,356
4F2CY0C70AK022522,Bernadine,Goodin,bgoodin9w@cmu.edu,41,F,357
WVWAA7AH4AV010209,Allys,Ravenshaw,aravenshaw9x@msn.com,56,F,358
YV1940AS1D1450570,Patric,Oselton,poselton9y@pagesperso-orange.fr,80,M,359
WBSCL93451L076460,Lindsay,Thackray,lthackray9z@house.gov,59,M,360
JTDKN3DU2A0164893,Rabbi,Bourne,rbournea0@facebook.com,70,M,361
1G6DA67V780516549,Shay,Rawcliffe,srawcliffea1@webs.com,46,M,362
1GYS3GEF2DR563259,Reynolds,Walworche,rwalworchea2@yellowbook.com,70,M,363
WAUJC68E95A581785,Loella,Astling,lastlinga3@trellian.com,75,F,364
WBAYB6C59FD828974,Archibold,Von Welden,avonweldena4@themeforest.net,25,M,365
JH4DC53884S672646,Ines,Casassa,icasassaa5@wisc.edu,38,F,366
WBAPK7C54AA578913,Hailey,Drain,hdraina6@bizjournals.com,23,M,367
JTDKDTB34F1231430,Lilla,Di Carli,ldicarlia7@hatena.ne.jp,57,F,368
WA1DKBFP9CA307364,Olenka,Burdon,oburdona8@google.de,32,F,369
WBAVC53537A475595,Haroun,Wilhelmy,hwilhelmya9@tumblr.com,18,M,370
WAULC58E64A431389,Eldredge,Tilt,etiltaa@msn.com,71,M,371
3C63DPJL6CG877358,Hali,Thurstan,hthurstanab@dagondesign.com,44,F,372
5N1AN0NU8DN057021,Fey,Wapple,fwappleac@dot.gov,46,F,373
1FT7W2A62EE523765,Zaria,Habens,zhabensad@youtu.be,72,F,374
1FTEX1CM3DK987836,Adler,Pantin,apantinae@alibaba.com,27,M,375
WAUUL78E77A341995,Jaclyn,Gilyatt,jgilyattaf@globo.com,20,F,376
SALGS2TF3FA983689,Tildie,Klemke,tklemkeag@ustream.tv,29,F,377
JA32X2HU5BU871557,Harper,Jakolevitch,hjakolevitchah@multiply.com,71,M,378
2C3CA5CG2BH464331,Faunie,Wiggans,fwiggansai@skype.com,33,F,379
WBADW3C55DJ716625,Elias,Loughren,eloughrenaj@ft.com,45,M,380
JN8AS5MT1BW123746,Ruperto,Hartwell,rhartwellak@nasa.gov,62,M,381
WP0AB2A9XBS147117,Jeth,Cannell,jcannellal@photobucket.com,49,M,382
3D7TT2CT0BG567691,Jeanelle,Chasmer,jchasmeram@ask.com,71,F,383
WAUVVAFR7AA033833,Riki,Ebbin,rebbinan@unicef.org,19,F,384
2C3CDYCJ4DH331545,Pauly,Patley,ppatleyao@wired.com,46,F,385
WAUTFAFH2AN046980,Ezequiel,Aukland,eauklandap@canalblog.com,18,M,386
JTHFF2C29F2472775,Brandon,Bordessa,bbordessaaq@cisco.com,80,M,387
1GD312CG4BF610848,Pauli,Plail,pplailar@washingtonpost.com,49,F,388
3N1AB7AP1FL792628,Rochella,Atwood,ratwoodas@mlb.com,77,F,389
WBA3T3C55EP021418,Hammad,Higgoe,hhiggoeat@army.mil,74,M,390
5N1AT2MK7FC364499,Raymund,Rutledge,rrutledgeau@weather.com,76,M,391
WUAW2AFC7FN011247,Dalenna,Champneys,dchampneysav@alexa.com,51,F,392
1FTMF1CW8AF052686,Lolly,Downes,ldownesaw@wikimedia.org,60,F,393
JTHKD5BH2D2183035,Laney,Scanlon,lscanlonax@deviantart.com,80,M,394
JM1NC2EF3A0082040,Branden,Pero,bperoay@sohu.com,19,M,395
WAUNG74F19N880924,John,Simmans,jsimmansaz@weibo.com,54,M,396
JN8CS1MU1FM599510,Brittany,Trevaskiss,btrevaskissb0@google.com.au,63,F,397
2HNYD18724H841165,Knox,Humbert,khumbertb1@imgur.com,26,M,398
SCBZU25E21C445533,Nannette,Machan,nmachanb2@loc.gov,74,F,399
3C6TD5ETXCG356240,Thebault,Scraggs,tscraggsb3@reddit.com,25,M,400
3D7JB1EP8BG325056,Leon,Rallinshaw,lrallinshawb4@businessweek.com,40,M,401
2G61T5S3XE9751266,Omero,Ferrao,oferraob5@mapy.cz,22,M,402
JN1CV6APXBM714150,Kelsey,Defty,kdeftyb6@springer.com,28,M,403
SCFBB04C79G289701,Obadiah,Kliemke,okliemkeb7@bandcamp.com,64,M,404
WP1AE2A23FL007948,Vasily,Eliassen,veliassenb8@imgur.com,69,M,405
SCFAD02EX9G661395,Oralie,Flecknoe,oflecknoeb9@senate.gov,78,F,406
WBAXG5C5XCD327403,Vita,Ferschke,vferschkeba@tamu.edu,51,F,407
1FTEW1C84FK003442,Lynn,Legges,lleggesbb@nsw.gov.au,50,M,408
3D4PG4FB4AT344304,Bartlet,Gavrielli,bgavriellibc@opera.com,57,M,409
WBA3B5C52DJ378815,Ailis,McKissack,amckissackbd@i2i.jp,42,F,410
WAULT68E33A118157,Mervin,Phebey,mphebeybe@nasa.gov,46,M,411
WAUCKAFR3AA303088,Ernesto,Redolfi,eredolfibf@wikimedia.org,37,M,412
WAUDG78E06A862866,Althea,Knapp,aknappbg@php.net,58,F,413
WP0CB2A83FK893933,Buddie,Inett,binettbh@github.com,71,M,414
WBAGN63555D132176,Goldi,Look,glookbi@deviantart.com,28,F,415
ML32A3HJ3FH401351,Leicester,Callendar,lcallendarbj@canalblog.com,46,M,416
YV1902FH3B2981264,Juliana,Doncaster,jdoncasterbk@globo.com,78,F,417
WAUAH98E68A714770,Daphne,McGraith,dmcgraithbl@dedecms.com,30,F,418
19XFA1F20AE604596,Winifield,Biggans,wbiggansbm@thetimes.co.uk,51,M,419
5N1AN0NU8CN210186,Viki,Deboick,vdeboickbn@dropbox.com,40,F,420
WP1AA2A24EL165127,Randall,Chadburn,rchadburnbo@sitemeter.com,35,M,421
WBAFV3C50FD676578,Brier,Oxborrow,boxborrowbp@blogspot.com,64,F,422
2T2BK1BA4DC413982,Esma,Decreuze,edecreuzebq@answers.com,69,F,423
1GYUCEEJ0AR730067,Norri,Overbury,noverburybr@parallels.com,38,F,424
1YVHZ8BH0C5873064,Dee,Sciusscietto,dsciussciettobs@ca.gov,68,F,425
WBAPN7C50BA520497,Noah,Shapero,nshaperobt@unicef.org,36,M,426
WBANF33546C191827,Felicity,Hablot,fhablotbu@nature.com,29,F,427
3C6LD4AT3CG270980,Hieronymus,Beecraft,hbeecraftbv@geocities.jp,31,M,428
1GYS4DEF7CR917853,Clyve,Rassell,crassellbw@ed.gov,28,M,429
1FTWX3A51AE153036,Jephthah,Prattington,jprattingtonbx@umn.edu,58,M,430
1G6DN56S650413284,Tildy,Oatley,toatleyby@sphinn.com,23,F,431
WBAUU3C55CA391852,Maddie,Napolitano,mnapolitanobz@ning.com,63,F,432
KMHTC6AD7EU272307,Candice,Delia,cdeliac0@ameblo.jp,80,F,433
1C4RDJEG1DC306894,Sal,Kinane,skinanec1@tripadvisor.com,20,M,434
1G6KF54945U739081,Ibbie,Rittmeyer,irittmeyerc2@bigcartel.com,56,F,435
WAUEFBFL1EN797545,Fabiano,Kittle,fkittlec3@cdc.gov,68,M,436
2C4RDGDG6CR411571,Donnie,Reinhart,dreinhartc4@twitter.com,57,M,437
WAUDFAFLXFN441862,Taylor,Olivera,toliverac5@guardian.co.uk,60,M,438
1GYS3KEF6BR825879,Guilbert,Angliss,ganglissc6@ovh.net,36,M,439
JN1AZ4EH7FM661061,Devi,Buckhurst,dbuckhurstc7@nps.gov,65,F,440
1GYS3JEF9DR097715,Lorraine,Hassell,lhassellc8@altervista.org,25,F,441
1FTEW1CF4FF712444,Chrisy,Thaller,cthallerc9@hp.com,44,M,442
KMHEC4A48FA586144,Jania,Horburgh,jhorburghca@pcworld.com,68,F,443
SAJWA4DC4FM473731,Aristotle,Pren,aprencb@surveymonkey.com,18,M,444
WBAGL634X4D089465,Vonny,Dyos,vdyoscc@nyu.edu,69,F,445
1G6KF57903U594033,Clemmy,Shasnan,cshasnancd@paypal.com,79,M,446
WVGAV3AX4DW369753,Waldemar,Langelay,wlangelayce@cbslocal.com,18,M,447
1GYS4AEF4CR917923,Boycie,Brennon,bbrennoncf@usa.gov,28,M,448
SCFFDAAE5CG868202,Erna,Clemmensen,eclemmensencg@joomla.org,40,F,449
KMHHT6KD4AU535416,Aleece,Meeron,ameeronch@ted.com,27,F,450
JN1CV6AP1DM590336,Aldo,Kingcott,akingcottci@ning.com,67,M,451
1FMCU0F75FU150444,Wilone,Kilius,wkiliuscj@google.it,49,F,452
WBA3B9C59DF366171,Marco,Sleite,msleiteck@gizmodo.com,49,M,453
WAULFAFH5DN958524,Willard,Atter,wattercl@webnode.com,49,M,454
1FTWX3B57AE689617,Aubert,D'Hooge,adhoogecm@upenn.edu,58,M,455
SCFHDDAJ7AA511529,Opaline,Folkard,ofolkardcn@scientificamerican.com,70,F,456
WAUGL98E45A209542,Melitta,Bellie,mbellieco@oaic.gov.au,64,F,457
WAUSFBFLXAA020074,Ludovika,Messitt,lmessittcp@google.com.hk,25,F,458
KMHHT6KD8BU773822,Millicent,Harden,mhardencq@biblegateway.com,30,F,459
3VW507AT9EM731986,Fay,Koba,fkobacr@paypal.com,39,F,460
3VW1K7AJ1DM458189,Myrtle,Church,mchurchcs@miibeian.gov.cn,55,F,461
5GAER13D79J616027,Ag,Hards,ahardsct@foxnews.com,51,F,462
1C3BC5ED7AN475405,Fairfax,Oneile,foneilecu@washington.edu,34,M,463
WA1CGAFEXCD465958,Forster,Ausiello,fausiellocv@icio.us,45,M,464
JH4DC53863S180857,Jade,Baseke,jbasekecw@sbwire.com,72,F,465
3FA6P0LU1DR708130,Ezequiel,Billson,ebillsoncx@arstechnica.com,71,M,466
1N6AA0CA8FN896532,Rosie,Greenman,rgreenmancy@seesaa.net,66,F,467
WAUKF78EX8A500685,Patsy,Belchem,pbelchemcz@tiny.cc,59,M,468
WBAKF5C58BE413606,Tricia,Leathard,tleathardd0@pen.io,61,F,469
1N6AF0LY4FN680370,Andris,Ivkovic,aivkovicd1@last.fm,39,M,470
3D73M3HL1BG735074,Hildegarde,Mollon,hmollond2@xinhuanet.com,80,F,471
1N6AD0CW2FN576657,Jennette,Shanks,jshanksd3@drupal.org,50,F,472
2LMHJ5AT7EB137299,Teri,Issett,tissettd4@yandex.ru,67,F,473
WA1LFAFP0CA939843,Devland,Webland,dweblandd5@arizona.edu,41,M,474
1FTWF3C50AE407268,Tibold,Cowpe,tcowped6@nsw.gov.au,55,M,475
3D7TP2HT3AG698612,Cynthia,Durant,cdurantd7@google.nl,48,F,476
1G4GH5E31CF712778,Aylmar,Jonuzi,ajonuzid8@prnewswire.com,67,M,477
1FTEX1E86AF068000,Daffie,Keepe,dkeeped9@time.com,56,F,478
1LNHL9DR7BG723468,Preston,Inchcomb,pinchcombda@ftc.gov,80,M,479
JTEBU5JR5D5473324,Normand,Ickovic,nickovicdb@symantec.com,70,M,480
3C6TD5PT3CG738655,Jackqueline,Tomblings,jtomblingsdc@smh.com.au,31,F,481
SCBBR9ZA9AC844846,Bordy,Lillford,blillforddd@hexun.com,51,M,482
WDDGF4HB2DA915965,Noam,Preon,npreonde@scientificamerican.com,78,M,483
WAUKG68E75A429738,Carmita,Gartenfeld,cgartenfelddf@disqus.com,32,F,484
2B3CJ5DT8AH757738,Nananne,Perkins,nperkinsdg@reference.com,75,F,485
WBAXH5C59CC835249,Alecia,Tows,atowsdh@spotify.com,58,F,486
WBAUN13528V741200,Cele,Deverill,cdeverilldi@tiny.cc,53,F,487
2LMDJ8JK0FB218850,Dannie,Ortner,dortnerdj@wordpress.org,54,F,488
WBAUN1C55CV636272,Osbourne,Rickertsen,orickertsendk@free.fr,80,M,489
3C3CFFAR3ET820499,Kendrick,Cockling,kcocklingdl@google.com.br,77,M,490
5YMGY0C52CL144996,Duane,Fitzhenry,dfitzhenrydm@vinaora.com,61,M,491
WA1VMAFE2DD499556,Nathanil,Soans,nsoansdn@wunderground.com,40,M,492
KMHTC6AD5FU264188,Elvin,Battey,ebatteydo@infoseek.co.jp,54,M,493
WBSDX9C50BE444406,Moina,Grayling,mgraylingdp@163.com,64,F,494
KMHEC4A46FA410063,Enrico,Chaves,echavesdq@merriam-webster.com,39,M,495
1G6AE5SXXD0176737,Lotty,Wincott,lwincottdr@spiegel.de,35,F,496
JN1AZ4EHXEM392942,Finn,Clery,fcleryds@cornell.edu,80,M,497
1FTMF1CW4AK471870,Jewel,Swinburn,jswinburndt@boston.com,68,F,498
1HGCR6F55FA997509,Morly,Woollard,mwoollarddu@ovh.net,53,M,499
1G6DJ5EY1B0885096,Morgun,Schoular,mschoulardv@time.com,35,M,500
